[gd_scene load_steps=3 format=2]

[ext_resource path="res://resource/curses_vector_24x36.png" type="Texture" id=1]

[sub_resource type="AtlasTexture" id=1]
flags = 4
atlas = ExtResource( 1 )
region = Rect2( 72, 72, 24, 36 )

[node name="Wall" type="Sprite"]
modulate = Color( 0.670588, 0.698039, 0.74902, 1 )
texture = SubResource( 1 )
